Library/Bee/artifacts/mvdfrm/UnityEditor.TestRunner.ref.dll_DE1D13444BAAFBE7.mvfrm
Library/Bee/artifacts/mvdfrm/UnityEditor.UI.ref.dll_BD0E97F52A0DF729.mvfrm
Library/Bee/artifacts/mvdfrm/UnityEngine.TestRunner.ref.dll_AA3B5DF2776E59D2.mvfrm
Library/Bee/artifacts/mvdfrm/UnityEngine.UI.ref.dll_79746E5030301F94.mvfrm
Library/Bee/artifacts/mvdfrm/UnityEditor.Graphs.dll_7111FC7C2B6E15D7.mvfrm
Library/Bee/artifacts/mvdfrm/UnityEditor.CoreModule.dll_8CC1430FDD6E70A5.mvfrm
Library/Bee/artifacts/mvdfrm/UnityEditor.DeviceSimulatorModule.dll_C3A9FECFC9FB612C.mvfrm
Library/Bee/artifacts/mvdfrm/UnityEditor.DiagnosticsModule.dll_67C0C9014D9D687A.mvfrm
Library/Bee/artifacts/mvdfrm/UnityEditor.dll_DCAE23EB204877E0.mvfrm
Library/Bee/artifacts/mvdfrm/UnityEditor.GraphViewModule.dll_9A0E4AD1D4154111.mvfrm
Library/Bee/artifacts/mvdfrm/UnityEditor.PackageManagerUIModule.dll_14877A26AC4211C1.mvfrm
Library/Bee/artifacts/mvdfrm/UnityEditor.QuickSearchModule.dll_F2D04A0EA67464D3.mvfrm
Library/Bee/artifacts/mvdfrm/UnityEditor.SceneTemplateModule.dll_A81AF3E52779CBB4.mvfrm
Library/Bee/artifacts/mvdfrm/UnityEditor.TextCoreFontEngineModule.dll_5E53153E78A0E483.mvfrm
Library/Bee/artifacts/mvdfrm/UnityEditor.TextCoreTextEngineModule.dll_A63B4BB008249DA1.mvfrm
Library/Bee/artifacts/mvdfrm/UnityEditor.UIBuilderModule.dll_EE96F7EE46CDBA45.mvfrm
Library/Bee/artifacts/mvdfrm/UnityEditor.UIElementsModule.dll_B0624AD460679FC1.mvfrm
Library/Bee/artifacts/mvdfrm/UnityEditor.UIElementsSamplesModule.dll_94B702A4D0AE98BC.mvfrm
Library/Bee/artifacts/mvdfrm/UnityEditor.UIServiceModule.dll_2789095130050A5F.mvfrm
Library/Bee/artifacts/mvdfrm/UnityEditor.UnityConnectModule.dll_2506E1DA86CE71DB.mvfrm
Library/Bee/artifacts/mvdfrm/UnityEngine.AccessibilityModule.dll_DAC05F7C27EFF351.mvfrm
Library/Bee/artifacts/mvdfrm/UnityEngine.AIModule.dll_CC85000496CB1C59.mvfrm
Library/Bee/artifacts/mvdfrm/UnityEngine.AndroidJNIModule.dll_2EAB33A7A9870E97.mvfrm
Library/Bee/artifacts/mvdfrm/UnityEngine.AnimationModule.dll_6893C6FAAE7215B7.mvfrm
Library/Bee/artifacts/mvdfrm/UnityEngine.ARModule.dll_85F7C507F3E87B22.mvfrm
Library/Bee/artifacts/mvdfrm/UnityEngine.AssetBundleModule.dll_36B97D0008DB19C5.mvfrm
Library/Bee/artifacts/mvdfrm/UnityEngine.AudioModule.dll_2E9C9F6E6638B0E9.mvfrm
Library/Bee/artifacts/mvdfrm/UnityEngine.ClothModule.dll_9584FC6940558FCD.mvfrm
Library/Bee/artifacts/mvdfrm/UnityEngine.ClusterInputModule.dll_A4A356F0385644A1.mvfrm
Library/Bee/artifacts/mvdfrm/UnityEngine.ClusterRendererModule.dll_C956C14139B66EB0.mvfrm
Library/Bee/artifacts/mvdfrm/UnityEngine.CoreModule.dll_AFE216628573DBD0.mvfrm
Library/Bee/artifacts/mvdfrm/UnityEngine.CrashReportingModule.dll_22A9EFACA8E5F168.mvfrm
Library/Bee/artifacts/mvdfrm/UnityEngine.DirectorModule.dll_A30CC6C740F69DED.mvfrm
Library/Bee/artifacts/mvdfrm/UnityEngine.dll_0F526AC37EBC04C5.mvfrm
Library/Bee/artifacts/mvdfrm/UnityEngine.DSPGraphModule.dll_A85E2830B3576F0E.mvfrm
Library/Bee/artifacts/mvdfrm/UnityEngine.GameCenterModule.dll_58F87DC26FC7FF88.mvfrm
Library/Bee/artifacts/mvdfrm/UnityEngine.GIModule.dll_64C14912327A0473.mvfrm
Library/Bee/artifacts/mvdfrm/UnityEngine.GridModule.dll_8D5332509DC871C7.mvfrm
Library/Bee/artifacts/mvdfrm/UnityEngine.HotReloadModule.dll_E9DC850089A53139.mvfrm
Library/Bee/artifacts/mvdfrm/UnityEngine.ImageConversionModule.dll_3548BEF1BBDB26A4.mvfrm
Library/Bee/artifacts/mvdfrm/UnityEngine.IMGUIModule.dll_66FC3ED52C6A44CA.mvfrm
Library/Bee/artifacts/mvdfrm/UnityEngine.InputLegacyModule.dll_C7FE981EA0CCCFB6.mvfrm
Library/Bee/artifacts/mvdfrm/UnityEngine.InputModule.dll_9512671EDC70D58D.mvfrm
Library/Bee/artifacts/mvdfrm/UnityEngine.JSONSerializeModule.dll_3AD7E8B8272B53DB.mvfrm
Library/Bee/artifacts/mvdfrm/UnityEngine.LocalizationModule.dll_E2F02142CFD2379A.mvfrm
Library/Bee/artifacts/mvdfrm/UnityEngine.NVIDIAModule.dll_11C81A3ECD0FAA3C.mvfrm
Library/Bee/artifacts/mvdfrm/UnityEngine.ParticleSystemModule.dll_75BC38F916F77CF6.mvfrm
Library/Bee/artifacts/mvdfrm/UnityEngine.PerformanceReportingModule.dll_6FE3B08F5B7B408F.mvfrm
Library/Bee/artifacts/mvdfrm/UnityEngine.Physics2DModule.dll_B539B6EB4F6F0D4C.mvfrm
Library/Bee/artifacts/mvdfrm/UnityEngine.PhysicsModule.dll_18CF93E39F0682DA.mvfrm
Library/Bee/artifacts/mvdfrm/UnityEngine.ProfilerModule.dll_D552FFFDDA5024FA.mvfrm
Library/Bee/artifacts/mvdfrm/UnityEngine.RuntimeInitializeOnLoadManagerInitializerModule.dll_DE97B6D2B5211615.mvfrm
Library/Bee/artifacts/mvdfrm/UnityEngine.ScreenCaptureModule.dll_54BF963D3B97803D.mvfrm
Library/Bee/artifacts/mvdfrm/UnityEngine.SharedInternalsModule.dll_B959FDC7330921F4.mvfrm
Library/Bee/artifacts/mvdfrm/UnityEngine.SpriteMaskModule.dll_4224F05291379502.mvfrm
Library/Bee/artifacts/mvdfrm/UnityEngine.SpriteShapeModule.dll_501AAA5ABE7D51CF.mvfrm
Library/Bee/artifacts/mvdfrm/UnityEngine.StreamingModule.dll_1D28B44AFDF9CCF5.mvfrm
Library/Bee/artifacts/mvdfrm/UnityEngine.SubstanceModule.dll_F9D3C894494CCB03.mvfrm
Library/Bee/artifacts/mvdfrm/UnityEngine.SubsystemsModule.dll_ACD256B45F7F7D15.mvfrm
Library/Bee/artifacts/mvdfrm/UnityEngine.TerrainModule.dll_33160F5274C4CBC8.mvfrm
Library/Bee/artifacts/mvdfrm/UnityEngine.TerrainPhysicsModule.dll_7636E1CC303A7783.mvfrm
Library/Bee/artifacts/mvdfrm/UnityEngine.TextCoreFontEngineModule.dll_DCB290918B9EA34E.mvfrm
Library/Bee/artifacts/mvdfrm/UnityEngine.TextCoreTextEngineModule.dll_249AC7031B225C6C.mvfrm
Library/Bee/artifacts/mvdfrm/UnityEngine.TextRenderingModule.dll_7DFF0847F2CF0032.mvfrm
Library/Bee/artifacts/mvdfrm/UnityEngine.TilemapModule.dll_D21276D38C81ACD1.mvfrm
Library/Bee/artifacts/mvdfrm/UnityEngine.TLSModule.dll_6660B6D8C2C58D2E.mvfrm
Library/Bee/artifacts/mvdfrm/UnityEngine.UIElementsModule.dll_B110B81C62ABB90C.mvfrm
Library/Bee/artifacts/mvdfrm/UnityEngine.UIElementsNativeModule.dll_5F012EBC1DBA81E3.mvfrm
Library/Bee/artifacts/mvdfrm/UnityEngine.UIModule.dll_C7F89E31F3122205.mvfrm
Library/Bee/artifacts/mvdfrm/UnityEngine.UmbraModule.dll_A9714B86F35F5C5C.mvfrm
Library/Bee/artifacts/mvdfrm/UnityEngine.UNETModule.dll_42885E4BD282D149.mvfrm
Library/Bee/artifacts/mvdfrm/UnityEngine.UnityAnalyticsModule.dll_955BA9C2C31ECEF2.mvfrm
Library/Bee/artifacts/mvdfrm/UnityEngine.UnityConnectModule.dll_126665E981567286.mvfrm
Library/Bee/artifacts/mvdfrm/UnityEngine.UnityCurlModule.dll_9BB0682C1E8607A4.mvfrm
Library/Bee/artifacts/mvdfrm/UnityEngine.UnityTestProtocolModule.dll_5079B8972AA9EE12.mvfrm
Library/Bee/artifacts/mvdfrm/UnityEngine.UnityWebRequestAssetBundleModule.dll_D76C073606B3D743.mvfrm
Library/Bee/artifacts/mvdfrm/UnityEngine.UnityWebRequestAudioModule.dll_E7E0046DE1E60B27.mvfrm
Library/Bee/artifacts/mvdfrm/UnityEngine.UnityWebRequestModule.dll_46E7C69BC6CFC123.mvfrm
Library/Bee/artifacts/mvdfrm/UnityEngine.UnityWebRequestTextureModule.dll_81E9A37537499BDC.mvfrm
Library/Bee/artifacts/mvdfrm/UnityEngine.UnityWebRequestWWWModule.dll_EF5D0C5F0AE218D8.mvfrm
Library/Bee/artifacts/mvdfrm/UnityEngine.VehiclesModule.dll_1ACFC046BB206D88.mvfrm
Library/Bee/artifacts/mvdfrm/UnityEngine.VFXModule.dll_E73F4F479932F69B.mvfrm
Library/Bee/artifacts/mvdfrm/UnityEngine.VideoModule.dll_53A623D928CACC8E.mvfrm
Library/Bee/artifacts/mvdfrm/UnityEngine.VirtualTexturingModule.dll_838DE32AF669026E.mvfrm
Library/Bee/artifacts/mvdfrm/UnityEngine.VRModule.dll_1ACAC4B794CCA77D.mvfrm
Library/Bee/artifacts/mvdfrm/UnityEngine.WindModule.dll_2630F18B16AA5A39.mvfrm
Library/Bee/artifacts/mvdfrm/UnityEngine.XRModule.dll_4D8987BC1E06F4DB.mvfrm
Library/Bee/artifacts/mvdfrm/UnityEditor.OSXStandalone.Extensions.dll_6A609BD0BD9A7876.mvfrm